platform,platformTenantName,platformTenantId,from,to,totalCost,currency,ms-resource-usage,creationSource,orchestrator,poolName,resourceNameSuffix,synapse
Azure,Pay-As-You-Go,27f7e912-b798-47fc-b008-d53d5db4b3ec,2021-01-01T00:00:00.000Z,2021-01-31T23:59:59.999Z,0.00,,azure-cloud-shell,"vmclient-aks-agentpool-39355561-0, vmclient-aks-agentpool-15540337-0","Kubernetes:1.20.9, Kubernetes:1.19.11",agentpool,"39355561, 15540337","Post-prod, Post-dev"
Azure,Pay-As-You-Go,27f7e912-b798-47fc-b008-d53d5db4b3ec,2021-08-01T00:00:00.000Z,2021-08-31T23:59:59.999Z,0.00,,azure-cloud-shell,"vmclient-aks-agentpool-39355561-0, vmclient-aks-agentpool-15540337-0","Kubernetes:1.20.9, Kubernetes:1.19.11",agentpool,"39355561, 15540337","Post-prod, Post-dev"
Azure,Pay-As-You-Go,27f7e912-b798-47fc-b008-d53d5db4b3ec,2021-01-01T00:00:00.000Z,2021-01-31T23:59:59.999Z,0.00,,azure-cloud-shell,"vmclient-aks-agentpool-39355561-0, vmclient-aks-agentpool-15540337-0","Kubernetes:1.20.9, Kubernetes:1.19.11",agentpool,"39355561, 15540337","Post-prod, Post-dev"
Azure,Pay-As-You-Go,27f7e912-b798-47fc-b008-d53d5db4b3ec,2021-10-01T00:00:00.000Z,2021-10-24T23:59:59.999Z,948.16,INR,azure-cloud-shell,"vmclient-aks-agentpool-39355561-0, vmclient-aks-agentpool-15540337-0","Kubernetes:1.20.9, Kubernetes:1.19.11",agentpool,"39355561, 15540337","Post-prod, Post-dev"
